Differential Gene Expression Analysis
…
library(readr)
Experiment_Design_factorial<- read_csv("Experiment_Design_Factorial.csv")

## Parsed with column specification:
## cols(
##   stressor = col_character(),
##   Time = col_character(),
##   name = col_character()
## )

Experiment_Design_total= as.data.frame(Experiment_Design_factorial)
(Experiment_Design_factorial)

## # A tibble: 72 x 3
##    stressor Time  name              
##    <chr>    <chr> <chr>             
##  1 WG       B     C23ELACXX_8_19.bam
##  2 WG       B     C2LRRACXX_1_18.bam
##  3 WG       B     C2LRRACXX_1_22.bam
##  4 WG       A     C6KALANXX_1_27.bam
##  5 WG       B     C6KALANXX_5_15.bam
##  6 WG       B     C6KALANXX_6_6.bam 
##  7 WG       A     C6KALANXX_7_14.bam
##  8 WG       A     C6KALANXX_7_15.bam
##  9 WG       B     C6KBPANXX_7_25.bam
## 10 WG       A     C6KEJANXX_1_2.bam 
## # ... with 62 more rows
…
